…
## `select`

`select` is used to select columns!

``` r
# basic
select(litters_df, gd0_weight, group)
```

    ## # A tibble: 49 × 2
    ##    gd0_weight group
    ##         <dbl> <chr>
    ##  1       19.7 Con7 
    ##  2       27   Con7 
    ##  3       26   Con7 
    ##  4       28.5 Con7 
    ##  5       NA   Con7 
    ##  6       NA   Con7 
    ##  7       NA   Con7 
    ##  8       NA   Con8 
    ##  9       NA   Con8 
    ## 10       28.5 Con8 
    ## # ℹ 39 more rows

``` r
# colon selects range
select(litters_df, group, gd0_weight:gd_of_birth)
```

    ## # A tibble: 49 × 4
    ##    group gd0_weight gd18_weight gd_of_birth
    ##    <chr>      <dbl>       <dbl>       <dbl>
    ##  1 Con7        19.7        34.7          20
    ##  2 Con7        27          42            19
    ##  3 Con7        26          41.4          19
    ##  4 Con7        28.5        44.1          19
    ##  5 Con7        NA          NA            20
    ##  6 Con7        NA          NA            20
    ##  7 Con7        NA          NA            20
    ##  8 Con8        NA          NA            20
    ##  9 Con8        NA          NA            20
    ## 10 Con8        28.5        NA            20
    ## # ℹ 39 more rows

``` r
# starts_with
select(litters_df, group, starts_with("pups")) # also ends_with, contains
```

    ## # A tibble: 49 × 4
    ##    group pups_born_alive pups_dead_birth pups_survive
    ##    <chr>           <dbl>           <dbl>        <dbl>
    ##  1 Con7                3               4            3
    ##  2 Con7                8               0            7
    ##  3 Con7                6               0            5
    ##  4 Con7                5               1            4
    ##  5 Con7                6               0            6
    ##  6 Con7                6               0            4
    ##  7 Con7                9               0            9
    ##  8 Con8                9               1            8
    ##  9 Con8                8               0            8
    ## 10 Con8                8               0            8
    ## # ℹ 39 more rows

``` r
# remove columns
select(litters_df, -litter_number)
```

    ## # A tibble: 49 × 7
    ##    group gd0_weight gd18_weight gd_of_birth pups_born_alive pups_dead_birth
    ##    <chr>      <dbl>       <dbl>       <dbl>           <dbl>           <dbl>
    ##  1 Con7        19.7        34.7          20               3               4
    ##  2 Con7        27          42            19               8               0
    ##  3 Con7        26          41.4          19               6               0
    ##  4 Con7        28.5        44.1          19               5               1
    ##  5 Con7        NA          NA            20               6               0
    ##  6 Con7        NA          NA            20               6               0
    ##  7 Con7        NA          NA            20               9               0
    ##  8 Con8        NA          NA            20               9               1
    ##  9 Con8        NA          NA            20               8               0
    ## 10 Con8        28.5        NA            20               8               0
    ## # ℹ 39 more rows
    ## # ℹ 1 more variable: pups_survive <dbl>

``` r
select(litters_df, -starts_with("gd"))
```

    ## # A tibble: 49 × 5
    ##    group litter_number   pups_born_alive pups_dead_birth pups_survive
    ##    <chr> <chr>                     <dbl>           <dbl>        <dbl>
    ##  1 Con7  #85                           3               4            3
    ##  2 Con7  #1/2/95/2                     8               0            7
    ##  3 Con7  #5/5/3/83/3-3                 6               0            5
    ##  4 Con7  #5/4/2/95/2                   5               1            4
    ##  5 Con7  #4/2/95/3-3                   6               0            6
    ##  6 Con7  #2/2/95/3-2                   6               0            4
    ##  7 Con7  #1/5/3/83/3-3/2               9               0            9
    ##  8 Con8  #3/83/3-3                     9               1            8
    ##  9 Con8  #2/95/3                       8               0            8
    ## 10 Con8  #3/5/2/2/95                   8               0            8
    ## # ℹ 39 more rows

``` r
# rename variables
select(litters_df, group, litter_id = litter_number)
```

    ## # A tibble: 49 × 2
    ##    group litter_id      
    ##    <chr> <chr>          
    ##  1 Con7  #85            
    ##  2 Con7  #1/2/95/2      
    ##  3 Con7  #5/5/3/83/3-3  
    ##  4 Con7  #5/4/2/95/2    
    ##  5 Con7  #4/2/95/3-3    
    ##  6 Con7  #2/2/95/3-2    
    ##  7 Con7  #1/5/3/83/3-3/2
    ##  8 Con8  #3/83/3-3      
    ##  9 Con8  #2/95/3        
    ## 10 Con8  #3/5/2/2/95    
    ## # ℹ 39 more rows

``` r
# everything()
select(litters_df, group, litter_id = litter_number, everything())
```

    ## # A tibble: 49 × 8
    ##    group litter_id       gd0_weight gd18_weight gd_of_birth pups_born_alive
    ##    <chr> <chr>                <dbl>       <dbl>       <dbl>           <dbl>
    ##  1 Con7  #85                   19.7        34.7          20               3
    ##  2 Con7  #1/2/95/2             27          42            19               8
    ##  3 Con7  #5/5/3/83/3-3         26          41.4          19               6
    ##  4 Con7  #5/4/2/95/2           28.5        44.1          19               5
    ##  5 Con7  #4/2/95/3-3           NA          NA            20               6
    ##  6 Con7  #2/2/95/3-2           NA          NA            20               6
    ##  7 Con7  #1/5/3/83/3-3/2       NA          NA            20               9
    ##  8 Con8  #3/83/3-3             NA          NA            20               9
    ##  9 Con8  #2/95/3               NA          NA            20               8
    ## 10 Con8  #3/5/2/2/95           28.5        NA            20               8
    ## # ℹ 39 more rows
    ## # ℹ 2 more variables: pups_dead_birth <dbl>, pups_survive <dbl>

``` r
select(litters_df, gd0_weight, everything())
```

    ## # A tibble: 49 × 8
    ##    gd0_weight group litter_number   gd18_weight gd_of_birth pups_born_alive
    ##         <dbl> <chr> <chr>                 <dbl>       <dbl>           <dbl>
    ##  1       19.7 Con7  #85                    34.7          20               3
    ##  2       27   Con7  #1/2/95/2              42            19               8
    ##  3       26   Con7  #5/5/3/83/3-3          41.4          19               6
    ##  4       28.5 Con7  #5/4/2/95/2            44.1          19               5
    ##  5       NA   Con7  #4/2/95/3-3            NA            20               6
    ##  6       NA   Con7  #2/2/95/3-2            NA            20               6
    ##  7       NA   Con7  #1/5/3/83/3-3/2        NA            20               9
    ##  8       NA   Con8  #3/83/3-3              NA            20               9
    ##  9       NA   Con8  #2/95/3                NA            20               8
    ## 10       28.5 Con8  #3/5/2/2/95            NA            20               8
    ## # ℹ 39 more rows
    ## # ℹ 2 more variables: pups_dead_birth <dbl>, pups_survive <dbl>

#### `select` vs `pull`

`select` outputs a dataframe, whereas `pull` creates a vector.

``` r
select(litters_df, group)
```

    ## # A tibble: 49 × 1
    ##    group
    ##    <chr>
    ##  1 Con7 
    ##  2 Con7 
    ##  3 Con7 
    ##  4 Con7 
    ##  5 Con7 
    ##  6 Con7 
    ##  7 Con7 
    ##  8 Con8 
    ##  9 Con8 
    ## 10 Con8 
    ## # ℹ 39 more rows
…
    ##  [1] "Con7" "Con7" "Con7" "Con7" "Con7" "Con7" "Con7" "Con8" "Con8" "Con8"
    ## [11] "Con8" "Con8" "Con8" "Con8" "Con8" "Mod7" "Mod7" "Mod7" "Mod7" "Mod7"
    ## [21] "Mod7" "Mod7" "Mod7" "Mod7" "Mod7" "Mod7" "Mod7" "Low7" "Low7" "Low7"
    ## [31] "Low7" "Low7" "Low7" "Low7" "Low7" "Mod8" "Mod8" "Mod8" "Mod8" "Mod8"
    ## [41] "Mod8" "Mod8" "Low8" "Low8" "Low8" "Low8" "Low8" "Low8" "Low8"

## Learning Assessment

``` r
select(pups_df, litter_number, sex, pd_ears)
```

    ## # A tibble: 313 × 3
    ##    litter_number   sex pd_ears
    ##    <chr>         <dbl>   <dbl>
    ##  1 #85               1       4
    ##  2 #85               1       4
    ##  3 #1/2/95/2         1       5
    ##  4 #1/2/95/2         1       5
    ##  5 #5/5/3/83/3-3     1       5
    ##  6 #5/5/3/83/3-3     1       5
    ##  7 #5/4/2/95/2       1      NA
    ##  8 #4/2/95/3-3       1       4
    ##  9 #4/2/95/3-3       1       4
    ## 10 #2/2/95/3-2       1       4
    ## # ℹ 303 more rows
…
``` r
filter(litters_df, group != "Con7")
```

    ## # A tibble: 42 × 8
    ##    group litter_number   gd0_weight gd18_weight gd_of_birth pups_born_alive
    ##    <chr> <chr>                <dbl>       <dbl>       <dbl>           <dbl>
    ##  1 Con8  #3/83/3-3             NA          NA            20               9
    ##  2 Con8  #2/95/3               NA          NA            20               8
    ##  3 Con8  #3/5/2/2/95           28.5        NA            20               8
    ##  4 Con8  #5/4/3/83/3           28          NA            19               9
    ##  5 Con8  #1/6/2/2/95-2         NA          NA            20               7
    ##  6 Con8  #3/5/3/83/3-3-2       NA          NA            20               8
    ##  7 Con8  #2/2/95/2             NA          NA            19               5
    ##  8 Con8  #3/6/2/2/95-3         NA          NA            20               7
    ##  9 Mod7  #59                   17          33.4          19               8
    ## 10 Mod7  #103                  21.4        42.1          19               9
    ## # ℹ 32 more rows
    ## # ℹ 2 more variables: pups_dead_birth <dbl>, pups_survive <dbl>
…
``` r
# negation
filter(litters_df, !(group == "Con7"))
```

    ## # A tibble: 42 × 8
    ##    group litter_number   gd0_weight gd18_weight gd_of_birth pups_born_alive
    ##    <chr> <chr>                <dbl>       <dbl>       <dbl>           <dbl>
    ##  1 Con8  #3/83/3-3             NA          NA            20               9
    ##  2 Con8  #2/95/3               NA          NA            20               8
    ##  3 Con8  #3/5/2/2/95           28.5        NA            20               8
    ##  4 Con8  #5/4/3/83/3           28          NA            19               9
    ##  5 Con8  #1/6/2/2/95-2         NA          NA            20               7
    ##  6 Con8  #3/5/3/83/3-3-2       NA          NA            20               8
    ##  7 Con8  #2/2/95/2             NA          NA            19               5
    ##  8 Con8  #3/6/2/2/95-3         NA          NA            20               7
    ##  9 Mod7  #59                   17          33.4          19               8
    ## 10 Mod7  #103                  21.4        42.1          19               9
    ## # ℹ 32 more rows
    ## # ℹ 2 more variables: pups_dead_birth <dbl>, pups_survive <dbl>

### Missing data

``` r
# remove all columns with missing values
drop_na(litters_df)
```

    ## # A tibble: 31 × 8
    ##    group litter_number gd0_weight gd18_weight gd_of_birth pups_born_alive
    ##    <chr> <chr>              <dbl>       <dbl>       <dbl>           <dbl>
    ##  1 Con7  #85                 19.7        34.7          20               3
    ##  2 Con7  #1/2/95/2           27          42            19               8
    ##  3 Con7  #5/5/3/83/3-3       26          41.4          19               6
    ##  4 Con7  #5/4/2/95/2         28.5        44.1          19               5
    ##  5 Mod7  #59                 17          33.4          19               8
    ##  6 Mod7  #103                21.4        42.1          19               9
    ##  7 Mod7  #3/82/3-2           28          45.9          20               5
    ##  8 Mod7  #5/3/83/5-2         22.6        37            19               5
    ##  9 Mod7  #106                21.7        37.8          20               5
    ## 10 Mod7  #94/2               24.4        42.9          19               7
    ## # ℹ 21 more rows
    ## # ℹ 2 more variables: pups_dead_birth <dbl>, pups_survive <dbl>

``` r
# one column
drop_na(litters_df, gd0_weight)
```

    ## # A tibble: 34 × 8
    ##    group litter_number gd0_weight gd18_weight gd_of_birth pups_born_alive
    ##    <chr> <chr>              <dbl>       <dbl>       <dbl>           <dbl>
    ##  1 Con7  #85                 19.7        34.7          20               3
    ##  2 Con7  #1/2/95/2           27          42            19               8
    ##  3 Con7  #5/5/3/83/3-3       26          41.4          19               6
    ##  4 Con7  #5/4/2/95/2         28.5        44.1          19               5
    ##  5 Con8  #3/5/2/2/95         28.5        NA            20               8
    ##  6 Con8  #5/4/3/83/3         28          NA            19               9
    ##  7 Mod7  #59                 17          33.4          19               8
    ##  8 Mod7  #103                21.4        42.1          19               9
    ##  9 Mod7  #3/82/3-2           28          45.9          20               5
    ## 10 Mod7  #4/2/95/2           23.5        NA            19               9
    ## # ℹ 24 more rows
    ## # ℹ 2 more variables: pups_dead_birth <dbl>, pups_survive <dbl>

#### Learning Assessment

``` r
filter(pups_df, sex == 1)
```

    ## # A tibble: 155 × 6
    ##    litter_number   sex pd_ears pd_eyes pd_pivot pd_walk
    ##    <chr>         <dbl>   <dbl>   <dbl>    <dbl>   <dbl>
    ##  1 #85               1       4      13        7      11
    ##  2 #85               1       4      13        7      12
    ##  3 #1/2/95/2         1       5      13        7       9
    ##  4 #1/2/95/2         1       5      13        8      10
    ##  5 #5/5/3/83/3-3     1       5      13        8      10
    ##  6 #5/5/3/83/3-3     1       5      14        6       9
    ##  7 #5/4/2/95/2       1      NA      14        5       9
    ##  8 #4/2/95/3-3       1       4      13        6       8
    ##  9 #4/2/95/3-3       1       4      13        7       9
    ## 10 #2/2/95/3-2       1       4      NA        8      10
    ## # ℹ 145 more rows

## `mutate`

``` r
mutate(litters_df, wt_gain = gd18_weight - gd0_weight)
```

    ## # A tibble: 49 × 9
    ##    group litter_number   gd0_weight gd18_weight gd_of_birth pups_born_alive
    ##    <chr> <chr>                <dbl>       <dbl>       <dbl>           <dbl>
    ##  1 Con7  #85                   19.7        34.7          20               3
    ##  2 Con7  #1/2/95/2             27          42            19               8
    ##  3 Con7  #5/5/3/83/3-3         26          41.4          19               6
    ##  4 Con7  #5/4/2/95/2           28.5        44.1          19               5
    ##  5 Con7  #4/2/95/3-3           NA          NA            20               6
    ##  6 Con7  #2/2/95/3-2           NA          NA            20               6
    ##  7 Con7  #1/5/3/83/3-3/2       NA          NA            20               9
    ##  8 Con8  #3/83/3-3             NA          NA            20               9
    ##  9 Con8  #2/95/3               NA          NA            20               8
    ## 10 Con8  #3/5/2/2/95           28.5        NA            20               8
    ## # ℹ 39 more rows
    ## # ℹ 3 more variables: pups_dead_birth <dbl>, pups_survive <dbl>, wt_gain <dbl>

``` r
# convert variable to lowercase
mutate(litters_df, group = str_to_lower(group))
```

    ## # A tibble: 49 × 8
    ##    group litter_number   gd0_weight gd18_weight gd_of_birth pups_born_alive
    ##    <chr> <chr>                <dbl>       <dbl>       <dbl>           <dbl>
    ##  1 con7  #85                   19.7        34.7          20               3
    ##  2 con7  #1/2/95/2             27          42            19               8
    ##  3 con7  #5/5/3/83/3-3         26          41.4          19               6
    ##  4 con7  #5/4/2/95/2           28.5        44.1          19               5
    ##  5 con7  #4/2/95/3-3           NA          NA            20               6
    ##  6 con7  #2/2/95/3-2           NA          NA            20               6
    ##  7 con7  #1/5/3/83/3-3/2       NA          NA            20               9
    ##  8 con8  #3/83/3-3             NA          NA            20               9
    ##  9 con8  #2/95/3               NA          NA            20               8
    ## 10 con8  #3/5/2/2/95           28.5        NA            20               8
    ## # ℹ 39 more rows
    ## # ℹ 2 more variables: pups_dead_birth <dbl>, pups_survive <dbl>

``` r
mutate(
  litters_df,
  wt_gain = gd18_weight - gd0_weight,
  group = str_to_lower(group)
)
```

    ## # A tibble: 49 × 9
    ##    group litter_number   gd0_weight gd18_weight gd_of_birth pups_born_alive
    ##    <chr> <chr>                <dbl>       <dbl>       <dbl>           <dbl>
    ##  1 con7  #85                   19.7        34.7          20               3
    ##  2 con7  #1/2/95/2             27          42            19               8
    ##  3 con7  #5/5/3/83/3-3         26          41.4          19               6
    ##  4 con7  #5/4/2/95/2           28.5        44.1          19               5
    ##  5 con7  #4/2/95/3-3           NA          NA            20               6
    ##  6 con7  #2/2/95/3-2           NA          NA            20               6
    ##  7 con7  #1/5/3/83/3-3/2       NA          NA            20               9
    ##  8 con8  #3/83/3-3             NA          NA            20               9
    ##  9 con8  #2/95/3               NA          NA            20               8
    ## 10 con8  #3/5/2/2/95           28.5        NA            20               8
    ## # ℹ 39 more rows
    ## # ℹ 3 more variables: pups_dead_birth <dbl>, pups_survive <dbl>, wt_gain <dbl>

## `arrange`

`arrange` sorts rows. It isn’t useful for analyses, but is good for EDA.

``` r
# one variable, sorting rows
arrange(litters_df, gd0_weight)
```

    ## # A tibble: 49 × 8
    ##    group litter_number gd0_weight gd18_weight gd_of_birth pups_born_alive
    ##    <chr> <chr>              <dbl>       <dbl>       <dbl>           <dbl>
    ##  1 Mod7  #59                 17          33.4          19               8
    ##  2 Mod7  #62                 19.5        35.9          19               7
    ##  3 Con7  #85                 19.7        34.7          20               3
    ##  4 Low8  #100                20          39.2          20               8
    ##  5 Mod7  #103                21.4        42.1          19               9
    ##  6 Mod7  #106                21.7        37.8          20               5
    ##  7 Low8  #53                 21.8        37.2          20               8
    ##  8 Low8  #4/84               21.8        35.2          20               4
    ##  9 Low7  #85/2               22.2        38.5          20               8
    ## 10 Mod7  #5/3/83/5-2         22.6        37            19               5
    ## # ℹ 39 more rows
    ## # ℹ 2 more variables: pups_dead_birth <dbl>, pups_survive <dbl>
…
